El número 23 expresado en notación binaria corresponde a:,10111,10111,10011,10101,
La diferencia entre la lógica combinacional y secuencial radica en:,La dependencia de entradas y salidas,La máquina de estado que las conforma,El tamaño del circuito,La dependencia de entradas y salidas,
Un decodificador consisten en :,Un circuito integrado de n entradas y 2^n salidas,Un circuito conformado por n entradas y 2^n codificadores,Un circuito integrado de n entradas y 2^n salidas,Un circuito integrado de 2^n entradas y n salidas,
Una máquina de Moore consiste en:,Una máquina de estados cuya salida depende solo del estado presente,Una máquina de estados cuya salida depende de las entradas y de los estados,Una máquina de estados cuya salida depende solo del estado presente,Una máquina de estados cuya salida depende de las entradas y todos los estados,
Dos tipos de compuertas lógicas son:,NOR y XOR,AND y MAYBE,XOR y PRIOR,NOR y XOR,
