Si f(t) tiene un ancho de banda de B Hz y se desea convertirla a una función en tiempo discreto el proceso de muestreo no representa pérdida de información siempre y cuando se haga a una frecuencia mayor o igual a:,Frecuencia de Nyquist,Frecuencia de Nyquist,Frecuencia fundamental,Frecuencia de la onda,
Para analizar señales y sistemas en el tiempo continuo es más adecuado usar:,Transformada de Laplace,Transformada de Laplace,Transformada Z,Transformada Fourier,
Para analizar señales y sistemas en tiempo discreto es más adecuado usar:,Transformada Z,Transformada de Laplace,Transformada Z,Transformada Fourier,
Un sistema discreto se denomina estable si los polos de su función de transferencia:,Se encuentran dentro del círculo unitario centrado en el origen,Si todos poseen parte real negativa,Dentro del círculo unitario centrado en el origen del plano complejo,Se encuentran dentro del círculo unitario centrado en el origen,
La función trigonométrica compleja sen(jz) es equivalente a:,jsenh(z),jsenh(z),jsen(z),cos(z),
